[
    {
        "key": "group_5a58bed123ad4",
        "title": "Configurações do Tema",
        "fields": [
            {
                "key": "field_5a58c39b36fd5",
                "label": "Header",
                "name": "",
                "type": "tab",
                "instructions": "",
                "required": 0,
                "conditional_logic": 0,
                "wrapper": {
                    "width": "",
                    "class": "",
                    "id": ""
                },
                "placement": "left",
                "endpoint": 0
            },
            {
                "key": "field_5e5919a5fb8a3",
                "label": "Grupo Header",
                "name": "grupo_header",
                "type": "group",
                "instructions": "",
                "required": 0,
                "conditional_logic": 0,
                "wrapper": {
                    "width": "",
                    "class": "",
                    "id": ""
                },
                "layout": "block",
                "sub_fields": [
                    {
                        "key": "field_5a58dd60e2589",
                        "label": "Logo Colorida",
                        "name": "logo_colorida",
                        "type": "image",
                        "instructions": "",
                        "required": 0,
                        "conditional_logic": 0,
                        "wrapper": {
                            "width": "33",
                            "class": "",
                            "id": ""
                        },
                        "return_format": "id",
                        "preview_size": "thumbnail",
                        "library": "all",
                        "min_width": "",
                        "min_height": "",
                        "min_size": "",
                        "max_width": "",
                        "max_height": "",
                        "max_size": "",
                        "mime_types": ""
                    },
                    {
                        "key": "field_5a58dd7ae258a",
                        "label": "Favicon",
                        "name": "favicon",
                        "type": "image",
                        "instructions": "",
                        "required": 0,
                        "conditional_logic": 0,
                        "wrapper": {
                            "width": "33",
                            "class": "",
                            "id": ""
                        },
                        "return_format": "url",
                        "preview_size": "thumbnail",
                        "library": "all",
                        "min_width": "",
                        "min_height": "",
                        "min_size": "",
                        "max_width": "",
                        "max_height": "",
                        "max_size": "",
                        "mime_types": ""
                    },
                    {
                        "key": "field_5e6b9e4f043a0",
                        "label": "Logo Email",
                        "name": "logo_email",
                        "type": "image",
                        "instructions": "",
                        "required": 0,
                        "conditional_logic": 0,
                        "wrapper": {
                            "width": "33",
                            "class": "",
                            "id": ""
                        },
                        "return_format": "url",
                        "preview_size": "medium",
                        "library": "all",
                        "min_width": "",
                        "min_height": "",
                        "min_size": "",
                        "max_width": "",
                        "max_height": "",
                        "max_size": "",
                        "mime_types": ""
                    },
                    {
                        "key": "field_5c0e5741c227e",
                        "label": "Nome da Empresa",
                        "name": "nome_da_empresa",
                        "type": "text",
                        "instructions": "",
                        "required": 0,
                        "conditional_logic": 0,
                        "wrapper": {
                            "width": "",
                            "class": "",
                            "id": ""
                        },
                        "default_value": "",
                        "placeholder": "",
                        "prepend": "",
                        "append": "",
                        "maxlength": ""
                    },
                    {
                        "key": "field_5ad4e39dc4205",
                        "label": "Slogan",
                        "name": "slogan",
                        "type": "text",
                        "instructions": "",
                        "required": 0,
                        "conditional_logic": 0,
                        "wrapper": {
                            "width": "",
                            "class": "",
                            "id": ""
                        },
                        "default_value": "",
                        "placeholder": "",
                        "prepend": "",
                        "append": "",
                        "maxlength": ""
                    },
                    {
                        "key": "field_5a58dda6e258c",
                        "label": "Código Header",
                        "name": "codigo_header",
                        "type": "textarea",
                        "instructions": "",
                        "required": 0,
                        "conditional_logic": 0,
                        "wrapper": {
                            "width": "",
                            "class": "",
                            "id": ""
                        },
                        "default_value": "",
                        "placeholder": "",
                        "maxlength": "",
                        "rows": "",
                        "new_lines": ""
                    }
                ]
            },
            {
                "key": "field_5a58dcf0d4ce2",
                "label": "Footer",
                "name": "",
                "type": "tab",
                "instructions": "",
                "required": 0,
                "conditional_logic": 0,
                "wrapper": {
                    "width": "",
                    "class": "",
                    "id": ""
                },
                "placement": "top",
                "endpoint": 0
            },
            {
                "key": "field_5e591a6882a80",
                "label": "Grupo Footer",
                "name": "grupo_footer",
                "type": "group",
                "instructions": "",
                "required": 0,
                "conditional_logic": 0,
                "wrapper": {
                    "width": "",
                    "class": "",
                    "id": ""
                },
                "layout": "block",
                "sub_fields": [
                    {
                        "key": "field_5a58dfc19fa88",
                        "label": "Texto do Footer",
                        "name": "Texto_footer",
                        "type": "textarea",
                        "instructions": "",
                        "required": 0,
                        "conditional_logic": 0,
                        "wrapper": {
                            "width": "70",
                            "class": "",
                            "id": ""
                        },
                        "default_value": "",
                        "placeholder": "",
                        "maxlength": "",
                        "rows": "",
                        "new_lines": ""
                    },
                    {
                        "key": "field_5a58c4da265e2",
                        "label": "Código Footer",
                        "name": "codigo_footer",
                        "type": "textarea",
                        "instructions": "",
                        "required": 0,
                        "conditional_logic": 0,
                        "wrapper": {
                            "width": "",
                            "class": "",
                            "id": ""
                        },
                        "default_value": "",
                        "placeholder": "",
                        "maxlength": "",
                        "rows": "",
                        "new_lines": ""
                    },
                    {
                        "key": "field_5e5e952fce6cb",
                        "label": "Imagem do mapa",
                        "name": "imagem_mapa",
                        "type": "image",
                        "instructions": "",
                        "required": 0,
                        "conditional_logic": 0,
                        "wrapper": {
                            "width": "",
                            "class": "",
                            "id": ""
                        },
                        "return_format": "id",
                        "preview_size": "medium",
                        "library": "all",
                        "min_width": "",
                        "min_height": "",
                        "min_size": "",
                        "max_width": "",
                        "max_height": "",
                        "max_size": "",
                        "mime_types": ""
                    }
                ]
            },
            {
                "key": "field_5a58c4fc5a9b2",
                "label": "Contato",
                "name": "",
                "type": "tab",
                "instructions": "",
                "required": 0,
                "conditional_logic": 0,
                "wrapper": {
                    "width": "",
                    "class": "",
                    "id": ""
                },
                "placement": "left",
                "endpoint": 0
            },
            {
                "key": "field_5e591a9c82a8a",
                "label": "Grupo Informações Para Contato",
                "name": "grupo_informacoes_para_contato",
                "type": "group",
                "instructions": "",
                "required": 0,
                "conditional_logic": 0,
                "wrapper": {
                    "width": "",
                    "class": "",
                    "id": ""
                },
                "layout": "block",
                "sub_fields": [
                    {
                        "key": "field_5a58c523c1eda",
                        "label": "Telefones",
                        "name": "telefones",
                        "type": "repeater",
                        "instructions": "",
                        "required": 0,
                        "conditional_logic": 0,
                        "wrapper": {
                            "width": "50",
                            "class": "",
                            "id": ""
                        },
                        "collapsed": "",
                        "min": 0,
                        "max": 0,
                        "layout": "table",
                        "button_label": "",
                        "sub_fields": [
                            {
                                "key": "field_5a58c58ac1edd",
                                "label": "Número",
                                "name": "numero_telefone",
                                "type": "text",
                                "instructions": "",
                                "required": 0,
                                "conditional_logic": 0,
                                "wrapper": {
                                    "width": "",
                                    "class": "",
                                    "id": ""
                                },
                                "default_value": "",
                                "placeholder": "",
                                "prepend": "",
                                "append": "",
                                "maxlength": ""
                            }
                        ]
                    },
                    {
                        "key": "field_5a58c53ec1edb",
                        "label": "WhatsApp",
                        "name": "whatsapp",
                        "type": "repeater",
                        "instructions": "",
                        "required": 0,
                        "conditional_logic": 0,
                        "wrapper": {
                            "width": "50",
                            "class": "",
                            "id": ""
                        },
                        "collapsed": "",
                        "min": 0,
                        "max": 0,
                        "layout": "table",
                        "button_label": "",
                        "sub_fields": [
                            {
                                "key": "field_5a58c5bfc1ede",
                                "label": "Número",
                                "name": "numero_whatsapp",
                                "type": "text",
                                "instructions": "Preencha os campos abaixo p\/ o número ser exibido no site.",
                                "required": 0,
                                "conditional_logic": 0,
                                "wrapper": {
                                    "width": "",
                                    "class": "",
                                    "id": ""
                                },
                                "default_value": "",
                                "placeholder": "",
                                "prepend": "",
                                "append": "",
                                "maxlength": ""
                            },
                            {
                                "key": "field_5b9bc4aa3672d",
                                "label": "Link do WhatsApp",
                                "name": "link_whatsapp",
                                "type": "text",
                                "instructions": "Nesse bloco repita o número do bloco do lado esquerdo, mas dessa vez sem espaços e sem o (55). Dessa forma o número fará o redirecionamento para o WhatsApp.\r\nEx: 31985880000",
                                "required": 1,
                                "conditional_logic": 0,
                                "wrapper": {
                                    "width": "",
                                    "class": "",
                                    "id": ""
                                },
                                "default_value": "",
                                "placeholder": "Ex: 31912345678",
                                "prepend": "",
                                "append": "",
                                "maxlength": ""
                            }
                        ]
                    },
                    {
                        "key": "field_5a58c54cc1edc",
                        "label": "E-mail",
                        "name": "emails",
                        "type": "repeater",
                        "instructions": "",
                        "required": 0,
                        "conditional_logic": 0,
                        "wrapper": {
                            "width": "",
                            "class": "",
                            "id": ""
                        },
                        "collapsed": "",
                        "min": 0,
                        "max": 0,
                        "layout": "table",
                        "button_label": "",
                        "sub_fields": [
                            {
                                "key": "field_5e5ea03d81ddd",
                                "label": "Setor",
                                "name": "setor",
                                "type": "text",
                                "instructions": "",
                                "required": 0,
                                "conditional_logic": 0,
                                "wrapper": {
                                    "width": "",
                                    "class": "",
                                    "id": ""
                                },
                                "default_value": "",
                                "placeholder": "",
                                "prepend": "",
                                "append": "",
                                "maxlength": ""
                            },
                            {
                                "key": "field_5a58c5edc1edf",
                                "label": "Endereço de E-mail",
                                "name": "endereco_email",
                                "type": "email",
                                "instructions": "",
                                "required": 0,
                                "conditional_logic": 0,
                                "wrapper": {
                                    "width": "",
                                    "class": "",
                                    "id": ""
                                },
                                "default_value": "",
                                "placeholder": "",
                                "prepend": "",
                                "append": ""
                            }
                        ]
                    },
                    {
                        "key": "field_5a58c63418e40",
                        "label": "Endereços",
                        "name": "enderecos",
                        "type": "repeater",
                        "instructions": "",
                        "required": 0,
                        "conditional_logic": 0,
                        "wrapper": {
                            "width": "",
                            "class": "",
                            "id": ""
                        },
                        "collapsed": "",
                        "min": 0,
                        "max": 0,
                        "layout": "table",
                        "button_label": "",
                        "sub_fields": [
                            {
                                "key": "field_5e59337a9b854",
                                "label": "Endereço",
                                "name": "endereco",
                                "type": "text",
                                "instructions": "",
                                "required": 0,
                                "conditional_logic": 0,
                                "wrapper": {
                                    "width": "",
                                    "class": "",
                                    "id": ""
                                },
                                "default_value": "",
                                "placeholder": "",
                                "prepend": "",
                                "append": "",
                                "maxlength": ""
                            },
                            {
                                "key": "field_5e5f9d67f089a",
                                "label": "Bairro",
                                "name": "bairro",
                                "type": "text",
                                "instructions": "",
                                "required": 0,
                                "conditional_logic": 0,
                                "wrapper": {
                                    "width": "",
                                    "class": "",
                                    "id": ""
                                },
                                "default_value": "",
                                "placeholder": "",
                                "prepend": "",
                                "append": "",
                                "maxlength": ""
                            },
                            {
                                "key": "field_5e5f9d7ff089b",
                                "label": "Cidade - Estado",
                                "name": "cidade_estado",
                                "type": "text",
                                "instructions": "",
                                "required": 0,
                                "conditional_logic": 0,
                                "wrapper": {
                                    "width": "",
                                    "class": "",
                                    "id": ""
                                },
                                "default_value": "",
                                "placeholder": "",
                                "prepend": "",
                                "append": "",
                                "maxlength": ""
                            }
                        ]
                    },
                    {
                        "key": "field_5a58c63c18e41",
                        "label": "Horário de Atendimento",
                        "name": "horario_atendimento",
                        "type": "text",
                        "instructions": "",
                        "required": 0,
                        "conditional_logic": 0,
                        "wrapper": {
                            "width": "",
                            "class": "",
                            "id": ""
                        },
                        "default_value": "",
                        "placeholder": "",
                        "prepend": "",
                        "append": "",
                        "maxlength": ""
                    },
                    {
                        "key": "field_5a58c7587682a",
                        "label": "Redes Sociais",
                        "name": "redes_sociais",
                        "type": "repeater",
                        "instructions": "",
                        "required": 0,
                        "conditional_logic": 0,
                        "wrapper": {
                            "width": "",
                            "class": "",
                            "id": ""
                        },
                        "collapsed": "",
                        "min": 0,
                        "max": 0,
                        "layout": "table",
                        "button_label": "",
                        "sub_fields": [
                            {
                                "key": "field_5e3c69d3396c3",
                                "label": "Icone",
                                "name": "icone_social",
                                "type": "font-awesome",
                                "instructions": "",
                                "required": 0,
                                "conditional_logic": 0,
                                "wrapper": {
                                    "width": "",
                                    "class": "",
                                    "id": ""
                                },
                                "icon_sets": [
                                    "fab"
                                ],
                                "custom_icon_set": "",
                                "default_label": "",
                                "default_value": "",
                                "save_format": "class",
                                "allow_null": 0,
                                "show_preview": 0,
                                "enqueue_fa": 0,
                                "fa_live_preview": "",
                                "choices": []
                            },
                            {
                                "key": "field_5a58c7ef7682d",
                                "label": "Nome da Rede Social",
                                "name": "nome_rede_social",
                                "type": "select",
                                "instructions": "",
                                "required": 0,
                                "conditional_logic": 0,
                                "wrapper": {
                                    "width": "33",
                                    "class": "",
                                    "id": ""
                                },
                                "choices": {
                                    "Facebook": "Facebook",
                                    "Instagram": "Instagram",
                                    "G+": "G+",
                                    "Twitter": "Twitter",
                                    "Youtube": "Youtube",
                                    "Linkedin": "Linkedin"
                                },
                                "default_value": [
                                    "Selecione"
                                ],
                                "allow_null": 0,
                                "multiple": 0,
                                "ui": 0,
                                "return_format": "value",
                                "ajax": 0,
                                "placeholder": ""
                            },
                            {
                                "key": "field_5a58c7bc7682c",
                                "label": "Link",
                                "name": "link_social",
                                "type": "url",
                                "instructions": "",
                                "required": 0,
                                "conditional_logic": 0,
                                "wrapper": {
                                    "width": "33",
                                    "class": "",
                                    "id": ""
                                },
                                "default_value": "",
                                "placeholder": ""
                            }
                        ]
                    }
                ]
            },
            {
                "key": "field_5e42ee3db8a54",
                "label": "Recursos & Conteúdos",
                "name": "",
                "type": "tab",
                "instructions": "",
                "required": 0,
                "conditional_logic": 0,
                "wrapper": {
                    "width": "",
                    "class": "",
                    "id": ""
                },
                "placement": "top",
                "endpoint": 0
            },
            {
                "key": "field_5e591bf2695f1",
                "label": "Grupo Conteúdos dos Componentes",
                "name": "grupo_conteudos_dos_componentes",
                "type": "group",
                "instructions": "",
                "required": 0,
                "conditional_logic": 0,
                "wrapper": {
                    "width": "",
                    "class": "",
                    "id": ""
                },
                "layout": "block",
                "sub_fields": [
                    {
                        "key": "field_5e591c421e6fc",
                        "label": "Slide",
                        "name": "",
                        "type": "tab",
                        "instructions": "",
                        "required": 0,
                        "conditional_logic": 0,
                        "wrapper": {
                            "width": "",
                            "class": "",
                            "id": ""
                        },
                        "placement": "top",
                        "endpoint": 0
                    },
                    {
                        "key": "field_5e593e3dc57f2",
                        "label": "Slide",
                        "name": "slide_repetidor",
                        "type": "repeater",
                        "instructions": "",
                        "required": 0,
                        "conditional_logic": 0,
                        "wrapper": {
                            "width": "",
                            "class": "",
                            "id": ""
                        },
                        "collapsed": "",
                        "min": 0,
                        "max": 0,
                        "layout": "table",
                        "button_label": "",
                        "sub_fields": [
                            {
                                "key": "field_5e593e53c57f3",
                                "label": "Imagem",
                                "name": "imagem",
                                "type": "image",
                                "instructions": "",
                                "required": 0,
                                "conditional_logic": 0,
                                "wrapper": {
                                    "width": "",
                                    "class": "",
                                    "id": ""
                                },
                                "return_format": "id",
                                "preview_size": "medium",
                                "library": "all",
                                "min_width": "",
                                "min_height": "",
                                "min_size": "",
                                "max_width": "",
                                "max_height": "",
                                "max_size": "",
                                "mime_types": ""
                            },
                            {
                                "key": "field_5e593e65c57f4",
                                "label": "Título",
                                "name": "titulo",
                                "type": "text",
                                "instructions": "",
                                "required": 0,
                                "conditional_logic": 0,
                                "wrapper": {
                                    "width": "",
                                    "class": "",
                                    "id": ""
                                },
                                "default_value": "",
                                "placeholder": "",
                                "prepend": "",
                                "append": "",
                                "maxlength": ""
                            },
                            {
                                "key": "field_5e593e6bc57f5",
                                "label": "Sub Título",
                                "name": "sub_titulo",
                                "type": "text",
                                "instructions": "",
                                "required": 0,
                                "conditional_logic": 0,
                                "wrapper": {
                                    "width": "",
                                    "class": "",
                                    "id": ""
                                },
                                "default_value": "",
                                "placeholder": "",
                                "prepend": "",
                                "append": "",
                                "maxlength": ""
                            },
                            {
                                "key": "field_5e593e76c57f6",
                                "label": "Texto Botão",
                                "name": "texto_botao",
                                "type": "text",
                                "instructions": "",
                                "required": 0,
                                "conditional_logic": 0,
                                "wrapper": {
                                    "width": "",
                                    "class": "",
                                    "id": ""
                                },
                                "default_value": "",
                                "placeholder": "",
                                "prepend": "",
                                "append": "",
                                "maxlength": ""
                            },
                            {
                                "key": "field_5e593e7dc57f7",
                                "label": "Link Botão",
                                "name": "link_botao",
                                "type": "url",
                                "instructions": "",
                                "required": 0,
                                "conditional_logic": 0,
                                "wrapper": {
                                    "width": "",
                                    "class": "",
                                    "id": ""
                                },
                                "default_value": "",
                                "placeholder": ""
                            }
                        ]
                    },
                    {
                        "key": "field_5e591cac4bd96",
                        "label": "Serviços",
                        "name": "",
                        "type": "tab",
                        "instructions": "",
                        "required": 0,
                        "conditional_logic": 0,
                        "wrapper": {
                            "width": "",
                            "class": "",
                            "id": ""
                        },
                        "placement": "top",
                        "endpoint": 0
                    },
                    {
                        "key": "field_5e591cb34bd97",
                        "label": "Quem Somos",
                        "name": "",
                        "type": "tab",
                        "instructions": "",
                        "required": 0,
                        "conditional_logic": 0,
                        "wrapper": {
                            "width": "",
                            "class": "",
                            "id": ""
                        },
                        "placement": "top",
                        "endpoint": 0
                    },
                    {
                        "key": "field_5e4bf31d94f06",
                        "label": "Quem Somos",
                        "name": "quem_somos",
                        "type": "group",
                        "instructions": "",
                        "required": 0,
                        "conditional_logic": 0,
                        "wrapper": {
                            "width": "",
                            "class": "",
                            "id": ""
                        },
                        "layout": "block",
                        "sub_fields": [
                            {
                                "key": "field_5e4bf31d94f07",
                                "label": "Imagem",
                                "name": "imagem",
                                "type": "image",
                                "instructions": "",
                                "required": 0,
                                "conditional_logic": 0,
                                "wrapper": {
                                    "width": "",
                                    "class": "",
                                    "id": ""
                                },
                                "return_format": "id",
                                "preview_size": "medium",
                                "library": "all",
                                "min_width": "",
                                "min_height": "",
                                "min_size": "",
                                "max_width": "",
                                "max_height": "",
                                "max_size": "",
                                "mime_types": ""
                            },
                            {
                                "key": "field_5e594089056c2",
                                "label": "Titulo",
                                "name": "titulo",
                                "type": "text",
                                "instructions": "",
                                "required": 0,
                                "conditional_logic": 0,
                                "wrapper": {
                                    "width": "",
                                    "class": "",
                                    "id": ""
                                },
                                "default_value": "",
                                "placeholder": "",
                                "prepend": "",
                                "append": "",
                                "maxlength": ""
                            },
                            {
                                "key": "field_5e4bf33c94f0a",
                                "label": "Texto",
                                "name": "texto",
                                "type": "textarea",
                                "instructions": "",
                                "required": 0,
                                "conditional_logic": 0,
                                "wrapper": {
                                    "width": "",
                                    "class": "",
                                    "id": ""
                                },
                                "default_value": "",
                                "placeholder": "",
                                "maxlength": "",
                                "rows": "",
                                "new_lines": ""
                            },
                            {
                                "key": "field_5e5940a8be54d",
                                "label": "Texto Botão",
                                "name": "texto_botao",
                                "type": "text",
                                "instructions": "",
                                "required": 0,
                                "conditional_logic": 0,
                                "wrapper": {
                                    "width": "",
                                    "class": "",
                                    "id": ""
                                },
                                "default_value": "",
                                "placeholder": "",
                                "prepend": "",
                                "append": "",
                                "maxlength": ""
                            },
                            {
                                "key": "field_5e5940b3be54e",
                                "label": "Link Botão",
                                "name": "link_botao",
                                "type": "url",
                                "instructions": "",
                                "required": 0,
                                "conditional_logic": 0,
                                "wrapper": {
                                    "width": "",
                                    "class": "",
                                    "id": ""
                                },
                                "default_value": "",
                                "placeholder": ""
                            }
                        ]
                    },
                    {
                        "key": "field_5e591cec4bd9a",
                        "label": "Diferenciais",
                        "name": "",
                        "type": "tab",
                        "instructions": "",
                        "required": 0,
                        "conditional_logic": 0,
                        "wrapper": {
                            "width": "",
                            "class": "",
                            "id": ""
                        },
                        "placement": "top",
                        "endpoint": 0
                    },
                    {
                        "key": "field_5e591d0e4bd9e",
                        "label": "Parallax",
                        "name": "",
                        "type": "tab",
                        "instructions": "",
                        "required": 0,
                        "conditional_logic": 0,
                        "wrapper": {
                            "width": "",
                            "class": "",
                            "id": ""
                        },
                        "placement": "top",
                        "endpoint": 0
                    },
                    {
                        "key": "field_5e4bf2105efa0",
                        "label": "Parallax",
                        "name": "parallax",
                        "type": "group",
                        "instructions": "",
                        "required": 0,
                        "conditional_logic": 0,
                        "wrapper": {
                            "width": "",
                            "class": "",
                            "id": ""
                        },
                        "layout": "row",
                        "sub_fields": [
                            {
                                "key": "field_5e42ee49b8a55",
                                "label": "Background",
                                "name": "background",
                                "type": "image",
                                "instructions": "",
                                "required": 0,
                                "conditional_logic": 0,
                                "wrapper": {
                                    "width": "",
                                    "class": "",
                                    "id": ""
                                },
                                "return_format": "url",
                                "preview_size": "medium",
                                "library": "all",
                                "min_width": "",
                                "min_height": "",
                                "min_size": "",
                                "max_width": "",
                                "max_height": "",
                                "max_size": "",
                                "mime_types": ""
                            },
                            {
                                "key": "field_5e4bf1ef5ef9e",
                                "label": "Texto Botão",
                                "name": "texto_botao",
                                "type": "text",
                                "instructions": "",
                                "required": 0,
                                "conditional_logic": 0,
                                "wrapper": {
                                    "width": "",
                                    "class": "",
                                    "id": ""
                                },
                                "default_value": "",
                                "placeholder": "",
                                "prepend": "",
                                "append": "",
                                "maxlength": ""
                            },
                            {
                                "key": "field_5e4bf2025ef9f",
                                "label": "Link Botão",
                                "name": "link_botao",
                                "type": "url",
                                "instructions": "",
                                "required": 0,
                                "conditional_logic": 0,
                                "wrapper": {
                                    "width": "",
                                    "class": "",
                                    "id": ""
                                },
                                "default_value": "",
                                "placeholder": ""
                            },
                            {
                                "key": "field_5e4bf609056e1",
                                "label": "Título",
                                "name": "titulo",
                                "type": "text",
                                "instructions": "",
                                "required": 0,
                                "conditional_logic": 0,
                                "wrapper": {
                                    "width": "",
                                    "class": "",
                                    "id": ""
                                },
                                "default_value": "",
                                "placeholder": "",
                                "prepend": "",
                                "append": "",
                                "maxlength": ""
                            },
                            {
                                "key": "field_5e4bf515eafd1",
                                "label": "conteúdo",
                                "name": "conteudo",
                                "type": "textarea",
                                "instructions": "",
                                "required": 0,
                                "conditional_logic": 0,
                                "wrapper": {
                                    "width": "",
                                    "class": "",
                                    "id": ""
                                },
                                "default_value": "",
                                "placeholder": "",
                                "maxlength": "",
                                "rows": "",
                                "new_lines": ""
                            }
                        ]
                    },
                    {
                        "key": "field_5e591d244bda0",
                        "label": "SEO",
                        "name": "",
                        "type": "tab",
                        "instructions": "",
                        "required": 0,
                        "conditional_logic": 0,
                        "wrapper": {
                            "width": "",
                            "class": "",
                            "id": ""
                        },
                        "placement": "top",
                        "endpoint": 0
                    }
                ]
            },
            {
                "key": "field_5e45a9d006730",
                "label": "Funcionalidades do Tema",
                "name": "",
                "type": "tab",
                "instructions": "",
                "required": 0,
                "conditional_logic": 0,
                "wrapper": {
                    "width": "",
                    "class": "",
                    "id": ""
                },
                "placement": "top",
                "endpoint": 0
            },
            {
                "key": "field_5e45a9e106731",
                "label": "Funcionalidades Principais",
                "name": "funcionalidades_principais",
                "type": "group",
                "instructions": "",
                "required": 0,
                "conditional_logic": 0,
                "wrapper": {
                    "width": "",
                    "class": "",
                    "id": ""
                },
                "layout": "row",
                "sub_fields": [
                    {
                        "key": "field_5e45aa1406732",
                        "label": "Slides",
                        "name": "slides",
                        "type": "true_false",
                        "instructions": "",
                        "required": 0,
                        "conditional_logic": 0,
                        "wrapper": {
                            "width": "",
                            "class": "",
                            "id": ""
                        },
                        "message": "",
                        "default_value": 0,
                        "ui": 1,
                        "ui_on_text": "",
                        "ui_off_text": ""
                    },
                    {
                        "key": "field_5e45aafed4f35",
                        "label": "Serviços",
                        "name": "servicos",
                        "type": "true_false",
                        "instructions": "",
                        "required": 0,
                        "conditional_logic": 0,
                        "wrapper": {
                            "width": "",
                            "class": "",
                            "id": ""
                        },
                        "message": "",
                        "default_value": 0,
                        "ui": 1,
                        "ui_on_text": "",
                        "ui_off_text": ""
                    },
                    {
                        "key": "field_5e45aafdd4f34",
                        "label": "Produtos",
                        "name": "produtos",
                        "type": "true_false",
                        "instructions": "",
                        "required": 0,
                        "conditional_logic": 0,
                        "wrapper": {
                            "width": "",
                            "class": "",
                            "id": ""
                        },
                        "message": "",
                        "default_value": 0,
                        "ui": 1,
                        "ui_on_text": "",
                        "ui_off_text": ""
                    },
                    {
                        "key": "field_5e45aafdd4f33",
                        "label": "Portifólio",
                        "name": "portifolio",
                        "type": "true_false",
                        "instructions": "",
                        "required": 0,
                        "conditional_logic": 0,
                        "wrapper": {
                            "width": "",
                            "class": "",
                            "id": ""
                        },
                        "message": "",
                        "default_value": 0,
                        "ui": 1,
                        "ui_on_text": "",
                        "ui_off_text": ""
                    },
                    {
                        "key": "field_5e45aafdd4f32",
                        "label": "Diferenciais",
                        "name": "diferenciais",
                        "type": "true_false",
                        "instructions": "",
                        "required": 0,
                        "conditional_logic": 0,
                        "wrapper": {
                            "width": "",
                            "class": "",
                            "id": ""
                        },
                        "message": "",
                        "default_value": 0,
                        "ui": 1,
                        "ui_on_text": "",
                        "ui_off_text": ""
                    },
                    {
                        "key": "field_5e45aafcd4f31",
                        "label": "Equipe",
                        "name": "equipe",
                        "type": "true_false",
                        "instructions": "",
                        "required": 0,
                        "conditional_logic": 0,
                        "wrapper": {
                            "width": "",
                            "class": "",
                            "id": ""
                        },
                        "message": "",
                        "default_value": 0,
                        "ui": 1,
                        "ui_on_text": "",
                        "ui_off_text": ""
                    },
                    {
                        "key": "field_5e45aafbd4f30",
                        "label": "Clientes",
                        "name": "clientes",
                        "type": "true_false",
                        "instructions": "",
                        "required": 0,
                        "conditional_logic": 0,
                        "wrapper": {
                            "width": "",
                            "class": "",
                            "id": ""
                        },
                        "message": "",
                        "default_value": 0,
                        "ui": 1,
                        "ui_on_text": "",
                        "ui_off_text": ""
                    },
                    {
                        "key": "field_5e45ab43d4f36",
                        "label": "Depoimentos",
                        "name": "depoimentos",
                        "type": "true_false",
                        "instructions": "",
                        "required": 0,
                        "conditional_logic": 0,
                        "wrapper": {
                            "width": "",
                            "class": "",
                            "id": ""
                        },
                        "message": "",
                        "default_value": 0,
                        "ui": 1,
                        "ui_on_text": "",
                        "ui_off_text": ""
                    },
                    {
                        "key": "field_5e45ab893fdf5",
                        "label": "Parallax",
                        "name": "parallax",
                        "type": "true_false",
                        "instructions": "",
                        "required": 0,
                        "conditional_logic": 0,
                        "wrapper": {
                            "width": "",
                            "class": "",
                            "id": ""
                        },
                        "message": "",
                        "default_value": 0,
                        "ui": 1,
                        "ui_on_text": "",
                        "ui_off_text": ""
                    },
                    {
                        "key": "field_5e45ab953fdf7",
                        "label": "Blog",
                        "name": "blog",
                        "type": "true_false",
                        "instructions": "",
                        "required": 0,
                        "conditional_logic": 0,
                        "wrapper": {
                            "width": "",
                            "class": "",
                            "id": ""
                        },
                        "message": "",
                        "default_value": 0,
                        "ui": 1,
                        "ui_on_text": "",
                        "ui_off_text": ""
                    },
                    {
                        "key": "field_5e45ab9e3fdf8",
                        "label": "Newsletter",
                        "name": "newsletter",
                        "type": "true_false",
                        "instructions": "",
                        "required": 0,
                        "conditional_logic": 0,
                        "wrapper": {
                            "width": "",
                            "class": "",
                            "id": ""
                        },
                        "message": "",
                        "default_value": 0,
                        "ui": 1,
                        "ui_on_text": "",
                        "ui_off_text": ""
                    },
                    {
                        "key": "field_5e45ad6c33e56",
                        "label": "Quem Somos",
                        "name": "quem_somos",
                        "type": "true_false",
                        "instructions": "",
                        "required": 0,
                        "conditional_logic": 0,
                        "wrapper": {
                            "width": "",
                            "class": "",
                            "id": ""
                        },
                        "message": "",
                        "default_value": 0,
                        "ui": 1,
                        "ui_on_text": "",
                        "ui_off_text": ""
                    }
                ]
            },
            {
                "key": "field_5a58bed912af5",
                "label": "Configurações Gerais",
                "name": "",
                "type": "tab",
                "instructions": "",
                "required": 0,
                "conditional_logic": 0,
                "wrapper": {
                    "width": "",
                    "class": "",
                    "id": ""
                },
                "placement": "left",
                "endpoint": 0
            },
            {
                "key": "field_5e591a2a82a7f",
                "label": "Grupo de Configurações Gerais",
                "name": "grupo_de_configuracoes_gerais",
                "type": "group",
                "instructions": "",
                "required": 0,
                "conditional_logic": 0,
                "wrapper": {
                    "width": "",
                    "class": "",
                    "id": ""
                },
                "layout": "block",
                "sub_fields": [
                    {
                        "key": "field_5a58bf1412af6",
                        "label": "Código do Analytics",
                        "name": "analytics",
                        "type": "text",
                        "instructions": "",
                        "required": 0,
                        "conditional_logic": 0,
                        "wrapper": {
                            "width": "",
                            "class": "",
                            "id": ""
                        },
                        "default_value": "",
                        "placeholder": "",
                        "prepend": "",
                        "append": "",
                        "maxlength": ""
                    },
                    {
                        "key": "field_5e68da5f019a6",
                        "label": "Imagem padrão",
                        "name": "imagem_padrao",
                        "type": "image",
                        "instructions": "",
                        "required": 0,
                        "conditional_logic": 0,
                        "wrapper": {
                            "width": "50",
                            "class": "",
                            "id": ""
                        },
                        "return_format": "id",
                        "preview_size": "medium",
                        "library": "all",
                        "min_width": "",
                        "min_height": "",
                        "min_size": "",
                        "max_width": "",
                        "max_height": "",
                        "max_size": "",
                        "mime_types": ""
                    },
                    {
                        "key": "field_5e7a5c128e988",
                        "label": "Link para o mapa (MAPS)",
                        "name": "link_mapa_maps",
                        "type": "google_map",
                        "instructions": "",
                        "required": 0,
                        "conditional_logic": 0,
                        "wrapper": {
                            "width": "50",
                            "class": "",
                            "id": ""
                        },
                        "center_lat": "",
                        "center_lng": "",
                        "zoom": "",
                        "height": ""
                    },
                    {
                        "key": "field_5a58bf3712af7",
                        "label": "Configuração SMTP",
                        "name": "config_smtp",
                        "type": "group",
                        "instructions": "",
                        "required": 0,
                        "conditional_logic": 0,
                        "wrapper": {
                            "width": "",
                            "class": "",
                            "id": ""
                        },
                        "layout": "block",
                        "sub_fields": [
                            {
                                "key": "field_5a58c14668d6f",
                                "label": "E-mail do Destinatário",
                                "name": "mail_do_destinatario",
                                "type": "email",
                                "instructions": "",
                                "required": 0,
                                "conditional_logic": 0,
                                "wrapper": {
                                    "width": "33",
                                    "class": "",
                                    "id": ""
                                },
                                "default_value": "",
                                "placeholder": "email@seusite.com.br",
                                "prepend": "",
                                "append": ""
                            },
                            {
                                "key": "field_5a58c1cf68d70",
                                "label": "Host",
                                "name": "host",
                                "type": "text",
                                "instructions": "",
                                "required": 0,
                                "conditional_logic": 0,
                                "wrapper": {
                                    "width": "33",
                                    "class": "",
                                    "id": ""
                                },
                                "default_value": "",
                                "placeholder": "",
                                "prepend": "",
                                "append": "",
                                "maxlength": ""
                            },
                            {
                                "key": "field_5a58c1ea68d71",
                                "label": "E-mails Autenticados?",
                                "name": "e-mails_autenticados",
                                "type": "true_false",
                                "instructions": "",
                                "required": 0,
                                "conditional_logic": 0,
                                "wrapper": {
                                    "width": "33",
                                    "class": "",
                                    "id": ""
                                },
                                "message": "",
                                "default_value": 0,
                                "ui": 0,
                                "ui_on_text": "",
                                "ui_off_text": ""
                            },
                            {
                                "key": "field_5a58c20c68d72",
                                "label": "Porta SMTP",
                                "name": "porta_smtp",
                                "type": "number",
                                "instructions": "",
                                "required": 0,
                                "conditional_logic": [
                                    [
                                        {
                                            "field": "field_5a58c1ea68d71",
                                            "operator": "==",
                                            "value": "1"
                                        }
                                    ]
                                ],
                                "wrapper": {
                                    "width": "",
                                    "class": "",
                                    "id": ""
                                },
                                "default_value": 587,
                                "placeholder": "",
                                "prepend": "",
                                "append": "",
                                "min": "",
                                "max": "",
                                "step": ""
                            },
                            {
                                "key": "field_5a58c22468d73",
                                "label": "Segurança SMTP",
                                "name": "seguranca_smtp",
                                "type": "text",
                                "instructions": "",
                                "required": 0,
                                "conditional_logic": [
                                    [
                                        {
                                            "field": "field_5a58c1ea68d71",
                                            "operator": "==",
                                            "value": "1"
                                        }
                                    ]
                                ],
                                "wrapper": {
                                    "width": "",
                                    "class": "",
                                    "id": ""
                                },
                                "default_value": "",
                                "placeholder": "",
                                "prepend": "",
                                "append": "",
                                "maxlength": ""
                            },
                            {
                                "key": "field_5a58c25d68d74",
                                "label": "Usuário SMTP",
                                "name": "usuario_smtp",
                                "type": "email",
                                "instructions": "",
                                "required": 0,
                                "conditional_logic": [
                                    [
                                        {
                                            "field": "field_5a58c1ea68d71",
                                            "operator": "==",
                                            "value": "1"
                                        }
                                    ]
                                ],
                                "wrapper": {
                                    "width": "",
                                    "class": "",
                                    "id": ""
                                },
                                "default_value": "",
                                "placeholder": "",
                                "prepend": "",
                                "append": ""
                            },
                            {
                                "key": "field_5a58c26d68d75",
                                "label": "Senha SMTP",
                                "name": "senha_smtp",
                                "type": "password",
                                "instructions": "",
                                "required": 0,
                                "conditional_logic": [
                                    [
                                        {
                                            "field": "field_5a58c1ea68d71",
                                            "operator": "==",
                                            "value": "1"
                                        }
                                    ]
                                ],
                                "wrapper": {
                                    "width": "",
                                    "class": "",
                                    "id": ""
                                },
                                "placeholder": "",
                                "prepend": "",
                                "append": ""
                            }
                        ]
                    },
                    {
                        "key": "field_5e4544532262b",
                        "label": "Cores do Tema",
                        "name": "cores_tema",
                        "type": "group",
                        "instructions": "",
                        "required": 0,
                        "conditional_logic": 0,
                        "wrapper": {
                            "width": "",
                            "class": "",
                            "id": ""
                        },
                        "layout": "table",
                        "sub_fields": [
                            {
                                "key": "field_5e445d32acd8d",
                                "label": "Cor Primaria",
                                "name": "cor_primaria",
                                "type": "color_picker",
                                "instructions": "",
                                "required": 0,
                                "conditional_logic": 0,
                                "wrapper": {
                                    "width": "",
                                    "class": "",
                                    "id": ""
                                },
                                "default_value": ""
                            },
                            {
                                "key": "field_5e445d50acd8e",
                                "label": "Cor Secundaria",
                                "name": "cor_secundaria",
                                "type": "color_picker",
                                "instructions": "",
                                "required": 0,
                                "conditional_logic": 0,
                                "wrapper": {
                                    "width": "",
                                    "class": "",
                                    "id": ""
                                },
                                "default_value": ""
                            },
                            {
                                "key": "field_5e445d5dacd8f",
                                "label": "Cor Terciária",
                                "name": "call_to_action",
                                "type": "color_picker",
                                "instructions": "",
                                "required": 0,
                                "conditional_logic": 0,
                                "wrapper": {
                                    "width": "",
                                    "class": "",
                                    "id": ""
                                },
                                "default_value": ""
                            },
                            {
                                "key": "field_5e4544da89afd",
                                "label": "Footer",
                                "name": "footer",
                                "type": "color_picker",
                                "instructions": "",
                                "required": 0,
                                "conditional_logic": 0,
                                "wrapper": {
                                    "width": "",
                                    "class": "",
                                    "id": ""
                                },
                                "default_value": ""
                            },
                            {
                                "key": "field_5e45a7e319d01",
                                "label": "Cor Títulos",
                                "name": "cor_titulos",
                                "type": "color_picker",
                                "instructions": "",
                                "required": 0,
                                "conditional_logic": 0,
                                "wrapper": {
                                    "width": "",
                                    "class": "",
                                    "id": ""
                                },
                                "default_value": ""
                            }
                        ]
                    }
                ]
            }
        ],
        "location": [
            [
                {
                    "param": "options_page",
                    "operator": "==",
                    "value": "theme-general-settings"
                }
            ]
        ],
        "menu_order": 0,
        "position": "normal",
        "style": "default",
        "label_placement": "top",
        "instruction_placement": "label",
        "hide_on_screen": "",
        "active": true,
        "description": "Configurações do Template"
    }
]